{
  "users": [
    {
      "id": 1,
      "name": "Alice Johnson",
      "email": "alice@example.com",
      "age": 32,
      "active": true,
      "roles": ["admin", "editor"],
      "address": {
        "street": "123 Main St",
        "city": "Springfield",
        "state": "IL",
        "zip": "62701",
        "country": "US"
      },
      "preferences": {
        "theme": "dark",
        "language": "en",
        "notifications": {
          "email": true,
          "sms": false,
          "push": true
        },
        "timezone": "America/Chicago"
      },
      "scores": [95, 87, 92, 78, 88, 91, 85, 93, 76, 89],
      "metadata": {
        "created_at": "2024-01-15T08:30:00Z",
        "updated_at": "2025-03-20T14:22:00Z",
        "login_count": 342,
        "last_ip": "192.168.1.100"
      }
    },
    {
      "id": 2,
      "name": "Bob Martinez",
      "email": "bob.martinez@example.com",
      "age": 28,
      "active": true,
      "roles": ["viewer"],
      "address": {
        "street": "456 Oak Avenue",
        "city": "Portland",
        "state": "OR",
        "zip": "97201",
        "country": "US"
      },
      "preferences": {
        "theme": "light",
        "language": "es",
        "notifications": {
          "email": true,
          "sms": true,
          "push": false
        },
        "timezone": "America/Los_Angeles"
      },
      "scores": [72, 68, 81, 75, 79, 83, 70, 77, 86, 74],
      "metadata": {
        "created_at": "2024-03-22T11:15:00Z",
        "updated_at": "2025-03-19T09:45:00Z",
        "login_count": 128,
        "last_ip": "10.0.0.55"
      }
    },
    {
      "id": 3,
      "name": "Carol Wei",
      "email": "carol.wei@example.com",
      "age": 45,
      "active": false,
      "roles": ["editor", "reviewer"],
      "address": {
        "street": "789 Pine Road",
        "city": "San Francisco",
        "state": "CA",
        "zip": "94102",
        "country": "US"
      },
      "preferences": {
        "theme": "auto",
        "language": "zh",
        "notifications": {
          "email": false,
          "sms": false,
          "push": true
        },
        "timezone": "America/Los_Angeles"
      },
      "scores": [98, 95, 97, 92, 99, 94, 96, 91, 93, 90],
      "metadata": {
        "created_at": "2023-11-01T16:00:00Z",
        "updated_at": "2025-02-28T20:10:00Z",
        "login_count": 567,
        "last_ip": "172.16.0.12"
      }
    },
    {
      "id": 4,
      "name": "David Okonkwo",
      "email": "david.o@example.com",
      "age": 37,
      "active": true,
      "roles": ["admin", "viewer", "editor"],
      "address": {
        "street": "321 Elm Boulevard",
        "city": "Austin",
        "state": "TX",
        "zip": "78701",
        "country": "US"
      },
      "preferences": {
        "theme": "dark",
        "language": "en",
        "notifications": {
          "email": true,
          "sms": true,
          "push": true
        },
        "timezone": "America/Chicago"
      },
      "scores": [88, 82, 90, 85, 87, 91, 84, 89, 86, 83],
      "metadata": {
        "created_at": "2024-06-10T07:20:00Z",
        "updated_at": "2025-03-21T12:00:00Z",
        "login_count": 215,
        "last_ip": "192.168.2.50"
      }
    },
    {
      "id": 5,
      "name": "Eva Larsson",
      "email": "eva.larsson@example.com",
      "age": 29,
      "active": true,
      "roles": ["reviewer"],
      "address": {
        "street": "654 Birch Lane",
        "city": "Seattle",
        "state": "WA",
        "zip": "98101",
        "country": "US"
      },
      "preferences": {
        "theme": "light",
        "language": "sv",
        "notifications": {
          "email": true,
          "sms": false,
          "push": false
        },
        "timezone": "America/Los_Angeles"
      },
      "scores": [76, 80, 73, 85, 79, 82, 77, 81, 84, 78],
      "metadata": {
        "created_at": "2024-09-05T13:45:00Z",
        "updated_at": "2025-03-18T08:30:00Z",
        "login_count": 89,
        "last_ip": "10.10.0.200"
      }
    }
  ],
  "pagination": {
    "page": 1,
    "per_page": 5,
    "total": 23,
    "total_pages": 5
  },
  "filters": {
    "active_only": false,
    "min_age": null,
    "max_age": null,
    "roles": [],
    "sort_by": "name",
    "sort_order": "asc"
  },
  "api_version": "2.1.0",
  "request_id": "req_abc123def456"
}
